Assignment_5
…
1.1 Washington DC was not assigned to a region in this dataset. According to the United States Census Bureau, however, DC is part of the South region. Here:

Change the region of DC to “South” (Hint: there are multiple ways to do this, but mutate() and ifelse() might be helpful)

housing |> 
  mutate(region = ifelse(is.na(region), "South", region))

# A tibble: 7,803 × 11
   State region  Date Home.Value Structure.Cost Land.Value Land.Share..Pct.
   <chr> <chr>  <dbl>      <dbl>          <dbl>      <dbl>            <dbl>
 1 AK    West   2010.     224952         160599      64352             28.6
 2 AK    West   2010.     225511         160252      65259             28.9
 3 AK    West   2010.     225820         163791      62029             27.5
 4 AK    West   2010      224994         161787      63207             28.1
 5 AK    West   2008      234590         155400      79190             33.8
 6 AK    West   2008.     233714         157458      76256             32.6
 7 AK    West   2008.     232999         160092      72906             31.3
 8 AK    West   2009.     232164         162704      69460             29.9
 9 AK    West   2009      231039         164739      66299             28.7
10 AK    West   2009.     229395         165424      63971             27.9
# ℹ 7,793 more rows
# ℹ 4 more variables: Home.Price.Index <dbl>, Land.Price.Index <dbl>,
#   Year <dbl>, Qrtr <dbl>

Create a new tibble or regular dataframe consisting of this new updated region variable along with the original variables State, Date and Land.Value (and no others)

housing |> 
  mutate(region = ifelse(is.na(region), "South", region)) |> 
  select(region, State, Date, Land.Value)

# A tibble: 7,803 × 4
   region State  Date Land.Value
   <chr>  <chr> <dbl>      <dbl>
 1 West   AK    2010.      64352
 2 West   AK    2010.      65259
 3 West   AK    2010.      62029
 4 West   AK    2010       63207
 5 West   AK    2008       79190
 6 West   AK    2008.      76256
 7 West   AK    2008.      72906
 8 West   AK    2009.      69460
 9 West   AK    2009       66299
10 West   AK    2009.      63971
# ℹ 7,793 more rows
…
